{
  "type": "service_account",
  "project_id": "p22-training-project",
  "private_key_id": "381acd3f600ab942fd13c8a540e4eaaebe7393d8",
  "private_key": "-----BEGIN PRIVATE KEY-----\nMIIEvQIBADANBgkqhkiG9w0BAQEFAASCBKcwggSjAgEAAoIBAQC04IZWbNctUdkm\n2hQfIEzplDNFnVEnlPQmDRX64wpkH+fAIkYjSFpEJ72cxZ5MmffCaY4GAxiJO833\n+imhh1L5RWBD9MPdvy3kUb4fzRkibRnOkjJdozpT+FWtmhj6j3OoRf0OCd01BJ8m\ni3D2BBWjgmhZTtlINCLrwwEzWxsUOwUtkgsQOG5l03PNDb40RSLTWQiZZxDbeE7X\nvvmgsUxXxnA0NaKZObrd4+8kTW62u1mSK1NVMvpcr64hRJQzLH0ImgiNQpGCM9ZU\nSfCuchT7cfsHwPBLBzpbI8Oun+A9WPb3yU6WPzHOyoOtLD15MfCHKuEmCGMYCbDU\n6on/q1oDAgMBAAECggEABOR10xdKkrKTZGui/lyJ+AocK5aKar8AA5ojArrqvbPn\nOYPeeyHVNIwRTZDtgTZA71nvj4C8mdRWSTjTsMd6RRJ3/Mk9awgQHmGKT6M6j3sn\n/DW+ywLulvWGoRV5S320gSleI5JnZgG5VE+SlJ+eU405dAD1UPCoE9HIfIfK/wxg\nf1o5/ezM37cTmQeYgy2kXDn3j5KJqOMNkZBFGUJ7eB3O4zurWbj/b7Z4Q/+lwnos\nha274TERotLHYxttsvhDPvG1D3euxBh4w4E/GgbyIfroHkpcCjuhI/Qy1YKUZUsX\n0LiJ7FNvV5TU0eOEtdH0a3iudCGr1JwOS4MszUcbcQKBgQD+ffdeSrSjwGBSgYcf\n0ubejSt2LZTM+0VPnV239pAX+hpZaaRdtQZShib04pb3ChntSIiUMrRKNNY4UUX+\nTx33D2EuGThYW6a68X3s5G6GhWvVLsF5abP3Mqg3+cApkR9emLl8FrvvtL93suAC\niYf+820nrLfjC9hufbM24B0r9wKBgQC18uS1zLeqalfKV3v/ghR9MVXABtAQvVch\nmylSANbesHp1L0nwpAe5HNSRiUJL2bKbxf0FkmyQl6nF1b/jn/6bRNqxp6IdQyjC\nPKt7X58FOqnmhGXa7Cful0vfBy3OwqKRwU8s+D2BZsAuiIvIXbVdrrtsuFuT1xBk\n92alwngHVQKBgETdRUDIqlTdS7NHxY7A/SQfwzD5aJiHLdw7Uw7is18pmFO1mHqa\n75kJICWH4x36J8XjqMGhbtPdtFIM/Amy0wL1sHBO9sZCFr3jdxXRQm84T1OikUwP\nZFlx5b8v3+XflUN9xENly3kzydPUHXXSTXCZ4mGoBSJ1JB3R+drRjlNFAoGAJXuF\nTEKBL7U6oq+FFuz4RZYtQSLmKBypX330dDVCDpwyjgOQ6ucPxD3BOL4bDz8owVh3\nOHeir+LekafoIP9r1xbHKsQK7JZSRjlzZjYbr1sXdyqdRQ1TaJ54fdifwjFshjRZ\nmD0HhqnhO3Tbvwo2+7asW8ha7Ujn0rT4y3sVeQUCgYEAy5WAG0NQ2LEfsQVkwWG8\n5DASBXfJBLJrfGGdsGiQuEXJx5igdUrOfsEhH/+YagrJN+1OBibKZykTFUGtqevZ\nxna9uSBxBltCQ2IhS0hwYrjn5DS5xfI1MUufjvVa3eBrzolt3z0p/2ZuDAbaRIVV\nVMHgBOIB7bfRre40uiEEAl8=\n-----END PRIVATE KEY-----\n",
  "client_email": "164826533538-compute@developer.gserviceaccount.com",
  "client_id": "100187356511306567820",
  "auth_uri": "https://accounts.google.com/o/oauth2/auth",
  "token_uri": "https://oauth2.googleapis.com/token",
  "auth_provider_x509_cert_url": "https://www.googleapis.com/oauth2/v1/certs",
  "client_x509_cert_url": "https://www.googleapis.com/robot/v1/metadata/x509/164826533538-compute%40developer.gserviceaccount.com"
}
