{
  "type": "service_account",
  "project_id": "engaged-stage-234905",
  "private_key_id": "377c154850e98aa9ae2cc66aad6ec983248af245",
  "private_key": "-----BEGIN PRIVATE KEY-----\nMIIEvQIBADANBgkqhkiG9w0BAQEFAASCBKcwggSjAgEAAoIBAQC3Mo5r2olFTc6a\nvKuwpaBlYHS847ETQxz1GyqnSONq/EaW4U08ys6D/T/bKYBwUqaYbfqw6uFnweMe\nD/d5VO4uU75UCaoFUSOj7X2y3TOOAjjAym5NwMq9oHut9e/TsIPU7yShcoG7EQ4X\nNge7HY7+Ac4kdgNVON0VKhT7IxKkS91+w0JZgAlTU4wzK85DnSOXpD+nx5XwVVtf\n+5UaXF8521NU9hDhCfdPkzmypLozv4RqaqPqiSSDVqrC6kR+6vquqz/VehK2HNW5\nWQhTwsA7IoEkMqfVWgkFlSzJOiiJ2EI20vtq00LZQp7Euss59K2rxI2AKftoCbSr\na96uRPt9AgMBAAECggEABtVp8/f+RYmLesDYSV9ERm58rEx0tIU9Cp+YIw6tp7YA\nDsIaFs8cjlaKD+t9EQjkPKy4PJU7vJps6xgpYRXxSeUcemy0h5I+mW990DLpfhNI\neViTw2689qnf3d4Is4V9cBn47H96+2FoJybVeai2nB8Gc4cQxMMO7CqFByvdwXx1\nS0FwVzMSOh1Cj43T11cs0eVG9ZMPPLhrqRthnWzKk0ZEtxPsp9dbqoxJbqa4LaKi\nQ7FB0IVbMEibOXY697niqUTCX2labRXB0EtZB96Ik2uQSjqMVJmqYGqLY23DjzUx\ndYDTUZjxGmYZg/B7NgBynfVYCi3l+QaQrk/MeZx5AQKBgQD9vlZsyumNgkQo7oQE\nS9rdOu2dN9cTn1JdO4Vh7tXQwBf+TT+YrSOYLx8HGILqh6Lxd1J1k9aBnN9gJMWn\nx6suFySQNQHdao8ZZB3QRsggLzF1/Lw5l4wuEhKlhO8cQEHBCra9Oj/u5pAK0Jjb\nSxjye9iMMJUaNQbobCXRL/nV4QKBgQC4053QiJNm9Viel8K61gDPOIpshe2hr10C\nlw2vj2JBHgMAarVzRUgXBV8vthxZTdm0bNObjDDRFWaocA3yuoLHKlTO4nhvQ0vy\n2cCPd6CXUzRxPaUTgWHkyT9AD75pzamz7CIFY3DoOkSz/kFxCMtUl1E7g5kNbtpo\nUwzLX53hHQKBgQCDwoWAQrGaUK1yD8Cvtm/09veR7wAY6V9MmG6/ltSibE1JOPWw\nIx/bk4RqG9lHTZ1YA5zm/xig/0Oi2hVk9TK3YT8UPuI0BnQ+PBWbJFYhGEB3wwA+\na6pX9fyGxIuhQOCkDBsuEYRHWqQraXwmS02uBI9C5KtYC3cF07qjcGUsIQKBgBKi\nw7bTDonDEzxqcOgFy+8Y9Fwc5Oj4lZg9QtQA0Rdfv027dLA6vBoWIJLe+dzHTLw0\nfOGiMQnj7oXtRnrC84zBZ+u0ShBt6KqD6jaNCVQ4v4DrhkmBMi2vXQFIlRp18jaC\nCKwiaq//sA22BUMwb9AHsdkeW8BO/RanyRJ4gaLBAoGAWUUN5SU+xV4S5D+l3OGU\nouxunpVllXfkrCBLUu7yCrimc1bo1wk2hYZbOTIVXurNgAA63LBLA9HwCfUaUhRg\nOo7rkv8gVwSg9LfBstmFABbw3SFeLC2Z0MPxXQthcZBYkFe3XFPXJ2X/yx8qRfo5\n/wFJ8HTQ2Hu8t51l/vQerNc=\n-----END PRIVATE KEY-----\n",
  "client_email": "1029810960237-compute@developer.gserviceaccount.com",
  "client_id": "105297087333583387422",
  "auth_uri": "https://accounts.google.com/o/oauth2/auth",
  "token_uri": "https://oauth2.googleapis.com/token",
  "auth_provider_x509_cert_url": "https://www.googleapis.com/oauth2/v1/certs",
  "client_x509_cert_url": "https://www.googleapis.com/robot/v1/metadata/x509/1029810960237-compute%40developer.gserviceaccount.com"
}
