{
  "type": "service_account",
  "project_id": "p17-training-project",
  "private_key_id": "c9e790bb0571f507fe98ca35f39d09cf3dbee03a",
  "private_key": "-----BEGIN PRIVATE KEY-----\nMIIEvQIBADANBgkqhkiG9w0BAQEFAASCBKcwggSjAgEAAoIBAQCk3e/bWPZ8IV9H\nSJYp6A3gce4RVr3JjFLM+mcjNaVUu+e+aE0cBoWAyTdcSZV0Z16VB2+8lpD0YwAi\nqzNpaIJINtRba9QWX5bpPJQLmZyJ29XDStDGvgRQT8t9TCQfd5wEH7Zgfg7PoRsV\nWvxj4HWtWejGYy105LJchNVwFaS2AVu7xOnt/0puFbyq91URDIwNPe1cbpWTzG21\npHCApecopPSl5PNFHcW37O4IkxsFImSXpy8lCojCe3h57eez/8wxXoV1Fv6wQoRd\nzAVLuh2ZGjzTOFmQcHK6+AvMJh669xTB1hKwB6rboDoxFgzEJ3iCaTIVAzkmsx4x\nPN+3tgNrAgMBAAECggEANnnbIphvwa5pRC2Y6Lnzs+ERcAtAZNOIHJD0+W5lde0s\n8v6V1BfXjyltsIHj73WkjAvMAP2jYg1AYzQ8pazRt7jeTGMBzm7Bd8n7hSW50tef\n94rGF5V76WmkbH93RCqKk9ZCtfmRPUwXnePVl874M1KNFth4kbJruSRvPjz4kuax\nhy7Njz6+bRGANNy3BMGu566wBfcX5DLq+y+LXXUXL1XmLyfbrjzQ34zOMdRZuRxW\npLKxqYwSHQ9pFWF+bnOpOkdujkeosz047ayNZg1xaOZACODSXOEmyyqzqGCMhMZE\nAClxcp7CNYI2+4ozM+lnfhjihac4vRUAQjGkTait+QKBgQDjd7lUop+0xRUqVX9X\nOSdBAlSEUM1K/tHlpN2CiyYJChgNMHL1Agh+cSOgMCj5nPNXCyzz+jFh8CZ3OI9D\nzOioInxytEVZTkws022Jg8bg8XJsbzcQ5szyNuYF2ME5mXllgLt4GAoKgiIywQnn\nIgUmOOeHNnbGmlr1EzeDM/qJbQKBgQC5jAYi6x36UBFtGlZWImlktAzkERERU2TR\nmHkEhtSoUEKHASR0zzZXsU3aQbFQheQhLCNWRZST4zUSma7jdQJox1eGODpW9VhO\ni53S11H+n0QfOncPo1fq6Gtcvr/aUmlyyvbD08VYVAyeAJ0MmvmIGAQmC6zesKPm\nBsrZg6NRNwKBgCB8qOt9jnGy9CLnsxgyAXk3a/q5z5g2bKPvt/M9DGGeH3FCyihT\n8gKdBgmK109PKzHzVqhBw2vJcLT2Tv/P9CqPQlbfiEgI9rgwOiS5vV3DHiR+fc7c\nJ8kwLgoHuxEO6lek2yF7zXNSwq+dAl0QbsvWtLqK/MvAn90AsZz7f3zBAoGALxLy\nX5uNEHuN4ENFUjcKzCzN9HLMBLxGoNJxKY/Xlhg+uKe2ixgjLl5iZRQzmz1M4omj\nMXkXt+l2BpENCNIf2VtxvjC3xGYckFjlop9UQyg/DTk1CbekT4nF61LNs+Mis6gA\nsTAiKkWwqcl4DsGmuzt0mf5uTlU8T9i7UDIQlkMCgYEArMnZfjEduuxecvpCt9DA\naUaUaLYADSJFNY7qEzyp3bx4rPkF7xbj3JpXZu4E7486ToyTGrb4NHzy4bo276S3\ntHeMtWU2fghe9iN7O8mgj2oQsrSOdHCrDTprUzUTB0edYbklR03xJdolEuByJS9W\nOSmLQ/whpNLD0DUjmkU9EUg=\n-----END PRIVATE KEY-----\n",
  "client_email": "329382986725-compute@developer.gserviceaccount.com",
  "client_id": "100810565412830683817",
  "auth_uri": "https://accounts.google.com/o/oauth2/auth",
  "token_uri": "https://oauth2.googleapis.com/token",
  "auth_provider_x509_cert_url": "https://www.googleapis.com/oauth2/v1/certs",
  "client_x509_cert_url": "https://www.googleapis.com/robot/v1/metadata/x509/329382986725-compute%40developer.gserviceaccount.com"
}
