{
  "type": "service_account",
  "project_id": "molten-rex-259409",
  "private_key_id": "4bd212e123e19fd611583b524971a5ab3aafb52d",
  "private_key": "-----BEGIN PRIVATE KEY-----\nMIIEvgIBADANBgkqhkiG9w0BAQEFAASCBKgwggSkAgEAAoIBAQDf9ePwSFGpERex\nDbHcy5isgeirbUNyUWOsrMJaWz2rL1QA+1E/Nms8guk4sFhhCcNKvz0RCtrFziv5\nLoe3BoZyDQRG78StRung13imArW4RsmKlEwppIQhm/8oKIijMsCJ9/wcrth8HJSR\nso95KIeLgZkSm3yxi7vTqhXzzvisc2Kd0pW1ZdvoNEFnwWivYhwsIX7BFbOZSCRv\nqC5OoGJLpdlvQ/qwaSJQHcJd4RKK+jsldk4omBZgioBLqUg+DuppCKOgrIleHbWZ\n8chPu/gXdu+BPP/VulfIxXqXFcGId02wTY7HPVhmZB3HL+ThICdpveNNimlpHVav\nWJUw1DGbAgMBAAECggEAaYWDEL8aTrThe0gPEg+Rj1IkLMUt/qpvcrfxWL5dp48E\nnvPKu6Rp0ViDB3U7JvmBHPJPFP0OyB1UpbLxOeCmrw0IA15MRjI/1vLfAyUKttkP\nc65c1lAP+3/zMFosyuwKQNdpX6BYGt4ieCVwKS9Z8fath1FgZo0GgfvFHRtbGnDf\nj7eekDv9YvnAokKPAFOlMpaaFijygtbp+WP/UgO6BKv7Dht3O60Nqjq5OpNn673r\nKz0YxITYuhFPiSA7gwX50xS0ytEJbkQpbfZaPAdLtZe5qLAmrN0oqPOd6Gxdvcfe\nhhkEuD7daC0NtbKbWzhtlSuMIX6VfMUfQN7dSbizJQKBgQDzG3nutXfq6LQ8czVE\nVRjtBOX6gem1fYefYAi5RRH43AieOKl4UzYHi+kzPbe019IRaQ3MeQqarENIUC5Y\nEtFAHO9uIovFwxl1jTOdNq8nZ2n87JT4ER/qt95rnhiBv7D2ms1AJElEQzyAtMz0\n5kCRwlGz456ZRkGn3/sbqHqe1wKBgQDr1ngWetyFnWjAQWUpaj51zJ9bu5eU+CUL\nWVWftW+N23Uwrv2WPU/P2tCIqjCh+bo6ESsvd6LUUYy+EOnKQhopg/GDyuzCbx4J\nTmKY9g876zALJ5VNmFdgPmcrZG6/6vOhA+u0Xzb4Qo44/HJwuKmhmqEShERKPq86\nixVHfGc+3QKBgQCLZ80i+oK6fRiltXbtKVMyz2VFomuvPD2iQcKe4yGsMBjtChb8\nPdM0vqFKVfDbTgtTGofkIeDX00J93CTHMns1paIS6NJ35CncQ80+MNZ95QpdFBlU\nqxU/VpK/6ZeqB49lyl06k9RDxb6TG5qQMN0D+Ic7faI7yJLrvj/Tm2g9XwKBgHjr\n/6jvGBD+c85X+YmxqxL1dyQu3HsKfNwD0y5PdkJTKxRqNSYKi9i0hkX8lXEHvZ+2\nW+E7w2Z/5d0yiN0m5Ykx2OzNaHYNSWZWJaHuUENVxM2DXz9pBCwZ8wZBubN3wbFm\ndD2IsIO8hHXdosP/OyLcSQhYfzdeSrSGycNcmweVAoGBALbeQpLXZFZ54AAVmvcN\njd7A9Cw/p+qGErIW9a+8G4rtBz5EiqBjSXHSpnIPOG/+oAjMANqM3zOUVVA+w0V/\ndS9+yIcvHfEO9jASMBEkL2xXWdFFATa9Y/aQ5DO3OI7rOOfSZchb8VUfo2n/70ab\nJzhynzJGuNQ4pwOFN2stozU5\n-----END PRIVATE KEY-----\n",
  "client_email": "132756851443-compute@developer.gserviceaccount.com",
  "client_id": "108695109363976360400",
  "auth_uri": "https://accounts.google.com/o/oauth2/auth",
  "token_uri": "https://oauth2.googleapis.com/token",
  "auth_provider_x509_cert_url": "https://www.googleapis.com/oauth2/v1/certs",
  "client_x509_cert_url": "https://www.googleapis.com/robot/v1/metadata/x509/132756851443-compute%40developer.gserviceaccount.com"
}
