{
  "type": "service_account",
  "project_id": "p21-training-project",
  "private_key_id": "16d7d69ddac06d298f057515c8ad958e9cf98bc6",
  "private_key": "-----BEGIN PRIVATE KEY-----\nMIIEvQIBADANBgkqhkiG9w0BAQEFAASCBKcwggSjAgEAAoIBAQCgogvbJzFINUoE\nZ4xS5ZzvxyRnNDlmTsm8SilaEdxOghGf/SGvOY1u6UARGJpMeffSlntNiu896s82\ns9SXOR8Yo6a4j+b/O1a4Et/71UKVxOkFLE9b6Xk1yWz6ZYD/ZltOFd9fOmq0lX05\ncxpXAIHJvv0xqPFm4ZCW9A18s6PYMunId2lY0cioKVOXk1/S6+fqW9hdLyP89cRP\nHeWwyALdg0NQXcXGYJSmEa/TAs80M96DXyVZISzFQ7ksAiMt6nYBOO62VhzrKOT2\njHVtpLBzJhNLF6iB5fwrpnAfxqCA1hjm4YL0sImJNucq/RQntpcMuDAD0XjOkr2X\nVrZAL2+xAgMBAAECggEABGWIxa8K3aIGDGYZcjeyPytMtyIllg0RTOqvBFp08Ce8\nzjBNtl2VZzitTOFZS9GShdfYuI/54IdVIeTzvpgocKlHLpMKUTFfF5+1NCtQEVGB\nEdWJAIgYMm+dTlmAdQZEHVz05bSUHqzMgZL4cvMHY4krXM/RUxuh2QEFfuk29w3S\nBRxnCGjQOtsOTmXbCpFHIbVxXgg3EfBafxKwamf6hiPrmdSMALBFHsba1/HNq6Wx\nXJ5Dp35ZWjR9MkDzUydVFiMR8OfjuxdGdKa+qEkswWO6L8kmGnRLL8/5EMjCXH+m\ng5pBtmuHxheBkfiy8IwuhndXLGUtU37U6VNT4LS1DwKBgQDOAIFSTSlNn4lkYmK8\n9S1e6hiL3Hr7apVTbtQArcaC2AfJNtuI/EL5H8Y59oBMvYn4Q8WOI5ElUqCddtNk\n8z5NwJQ/4edmp11zYyaN1LGRja2mSx4UpilMe6tCwSiH8MZatBx4wSQtVHWdncyP\nwJa/zKo48Yhrz2/pjh6PDEPlbwKBgQDHnqLQ03iEyRigs2Xy63sdXYQ2jHIRH8mc\nVUc5sw9QCCahC6JU1X5yTcscpwLyY8DIkf/1vdBqX0K/u+4vF3XsACeSbDvlahzg\nUqXzJysubtNn5q07EJOgGy2VTPyX3lGNmS4S5vJx7qmVbZc5NTUyZ09j43SWh2At\nq0yX8Vys3wKBgQCgFORqAGxIVeF+kLYKALzxNRk+Fme7WGgSHd3BaUkKBLaINokD\nOoUQ8xAnmta4y9Gbi47JlfoE9uC5fM1pdVzFLxIFUpdvvj9wm2wqa05Rvbdjspv9\nj+In/TJo/ZFxkjmR4sT9UZm7YBbGFQoR66c6BOGCvq80mE5vQHGe1/krIQKBgCS7\nCOR59PQh+JkhSYIQWGAH5BsRbq+99KAChQ+V5hxo04rQlDcd7Z1kuRn1lTI6rq95\nRerW2XGpQ6P6FZKus3EQejeUGNVW2Cdircx3CZgKpnW42WlD3JYaSiHtv5DGRKVU\naUjrG/Ng4e1v8+J/6uDyZ4ZOxRYppMXifj57F/1rAoGAdyPY9mPToHjc3rq2Cr2b\nhi+w2+l2brEdhTZtDRza6th9yx3lzWJ0iEGDt7kbdPGiVg9OKTNz0Lnq9Z6tB0He\neXOpg8WKt8NatoWJiFFV33fGfOAd4g1qogJCcOxxFCNOFeumdIgSY4tA+ZhmA4cC\n9/p+i4Cqj/JHSgOgCS1/Rog=\n-----END PRIVATE KEY-----\n",
  "client_email": "479598122283-compute@developer.gserviceaccount.com",
  "client_id": "101602525220542243996",
  "auth_uri": "https://accounts.google.com/o/oauth2/auth",
  "token_uri": "https://oauth2.googleapis.com/token",
  "auth_provider_x509_cert_url": "https://www.googleapis.com/oauth2/v1/certs",
  "client_x509_cert_url": "https://www.googleapis.com/robot/v1/metadata/x509/479598122283-compute%40developer.gserviceaccount.com"
}
