{
  "spec": {
      "template": {
          "spec": {
              "containers": [{
                  "name": "clair",
                  "volumeMounts": [{
                      "mountPath": "/tmp",
                      "name": "tmp"
                  }]
              }],
              "volumes": [{
                  "name": "tmp",
                  "persistentVolumeClaim": {
                      "claimName": "harbor-clair-tmp"
                  }
              }]
          }
      }
  }
}