{
  "type": "service_account",
  "project_id": "nth-transformer-259409",
  "private_key_id": "d4fc402269c4a59677e4307d55306e54fcd8af95",
  "private_key": "-----BEGIN PRIVATE KEY-----\nMIIEvAIBADANBgkqhkiG9w0BAQEFAASCBKYwggSiAgEAAoIBAQC3rlnXWmlNrxXa\nCivcYs7wmr5lLlyCFZBV3jV0w4O+dKY7Up2T0jKUoIJ9F9PHSOONysYItoQLMxGx\nZKbPWrsoAmUtDQM9pPiEsQc8IGdrbhTclpHwYx48wxxqNnEva4UakroBq1R3b61A\nDB9jVR/2xnAtYiO1PD3+wcEcNzla4/e7zHTlhi8ENYkE/VfCakWZe6AvqDMHt4B9\ndPl8uZTXY+CXGK4vP8MeFYfhdZyzmMgYjVldg8mgLMkVPYTd5rhuHUsclQEGPHuz\n3lJzx6KsDxThvG0q+zpN/lyiZecFB+miGUfDaEd8UIvUhjfvWhP6Kqtd41ThcMGt\nn1ajXbJlAgMBAAECggEAB6eX7eNs168avDCdUvy5KV9sMipER6rfY3y0V0Pd8H4g\nVADljpH9cqKHyEUfGcMosdwynuKq+Q6CnRUX5d9JmmloeaqnqRYqwdjgzM7VkIK7\naCqhiquOyIh3CC7G+RYZgMR+75qKFW94Kwmg9eedF+XS1J6uOfDN7UPPfj4HlrPZ\ncccSMRLJ5AGi5SAhiHuE3Pnb3vxULJI/Cx5vXkNr1UYEgrJb8knw0B6fprxLWUZk\n7+4y6+JyD7SSv0kNnno2n10cOqNJtOajDGEnTuiUmhLkLaHjtHKKyxEewyLbZmXY\ngd6pnMYtyBOO1HG+48/ISV8uqmiUErDmq3X/ySNr9wKBgQD80i8zV2rnzSLySF/v\nF0mPVEzE4PRpqeFmaYmNYsv85d5ooPQk0dF5zFntTvXUkdppkLlrYv21uNcM/4+w\nt88q8OXkcEDEEw2TFKLG6s7WtfDs53LJ+S0qfZG3gPn8/IxFD1GkRjTS1sricMhE\niX2AHeHQL6CC9RR2lF+tLiIWtwKBgQC5/ZvyWlotITb3Zczaow/Ww8eX0Zjay2rg\nWdypGk6hFGtqXaLQApFBPKoc48VG2iPkrb7ihQ7Gy1PRUBPhqLlzgJWoB0+Q5rc/\ncsTImJ677yqlV9egcdkhhPpCl+N/j1tsXD4eXPX6MSL4Q/2gZGCDUVwdYPqVwLb2\nMIqEB6/DwwKBgCrCMZFxW3dQznRDoVYCjkJbc5Boq22jeaekecsbxnxDNFZlwmTn\nx5Hd6eekzxbghBwOig2LdHVjiZt9LYQp0jPlAjycb5e50TXq64zQ8aKGqvSmQFfA\neM8S5a4vdhg/bknPyXMLHKv7/9xETtqolj0w0JwxMeh0Ir3bYkMb5lAJAoGANKcI\nE9biOm5xuh3WnXqWDE2GXoNWi3IUwoiOAE1TPyShuA3j/pELf/VljyIoAgPVL3LE\nXCog4cRD6TiLOFHklj8rntLbAoFeFRcvgD48iaWOZBp3D5PLTULw+hM3sy/pSMbg\nSwY0GGz6ol/VGCfybpqEwkhnCCfzY8SgIfpvFrMCgYBGBDetCKMkjrRK3s2464u+\nbAjS6J4x93fY3SDi9wWEgIXF9zwCDNtyokN7FHt1t+2J/LCRYTSygs0NBe/aR1rT\nbsxIczo4yW2GGQr3LA5FKZckHCEsnvmAM12AqmLDZ0R7LVa5h2+3Y7YyhZgU/nF0\nNCgVeOI/YBruTxtBZkz3oQ==\n-----END PRIVATE KEY-----\n",
  "client_email": "597266190428-compute@developer.gserviceaccount.com",
  "client_id": "103835046750688511275",
  "auth_uri": "https://accounts.google.com/o/oauth2/auth",
  "token_uri": "https://oauth2.googleapis.com/token",
  "auth_provider_x509_cert_url": "https://www.googleapis.com/oauth2/v1/certs",
  "client_x509_cert_url": "https://www.googleapis.com/robot/v1/metadata/x509/597266190428-compute%40developer.gserviceaccount.com"
}
