          
          {
            "node": {
              "hostnames": {
                "manage": [
                  "#worker-node-name#"
                ],
                "storage": [
                  "#worker-node-ip#"
                ]
              },
              "zone": 1
            },
            "devices": [
                {
                  "name": "/dev/sdb",
                  "destroydata": false
                }
              ]
          }END