{
  "type": "service_account",
  "project_id": "p-seven-training-project",
  "private_key_id": "2baa04cdf4e85e91ac982f5a8ad26e747d8601ef",
  "private_key": "-----BEGIN PRIVATE KEY-----\nMIIEvgIBADANBgkqhkiG9w0BAQEFAASCBKgwggSkAgEAAoIBAQCdew1OYOLwfzTr\nE3fU9rTdqX1yco2ENJrNv4KKx/LkMi6MaoT48GJkYicEIlMfMwtDAHGuQDwA1Uc4\nngeKrFjRQS2fG7/8LaY1tB4VnWEUMZJb0HIr0AC56uxxckBKzONSjGjwwJq/6Zxs\ne6a4Ky18dOm1tOkCNVEQM3+eT/0OQqlFP+0zZYI9QrinQSdnfielDUX3CNb6jKzE\nWcNiVu6Qz6MK2bS67ttSUBQ14Caf29AY5i+XZDK9rX3T0u0KZz6O941oq9i3583t\niPNMkAosHxRStL/DWIPCmJgQx9nxjM1duRc8Bs2IjUCKa5f4vl2Ifkuw/uGaPJcI\nQx114aBJAgMBAAECggEAAK143y93ioVhmulYiKgPGy0Rhx6LEViQmfYK/8Hgf67f\nmGcU72VJZxktBc2IAghcMguccZ2BJJfGWK4FZklbkHrxUU/zQYiIwI5n2rv0oPud\nn5uEAkBA4IvsPIi7UhcTm1VTVkXd5JmCvMzDaON2rKRsJQYEQqgsEx/Fms7JTfhl\nuxFgEKHg/SB0juM7ewPrsdO18RZs2Bu0oIbx0Mk7+pcWDAvCyhBtm4MAPhJSPq/T\nRyreH2fxlD42/pofKTLsY3ZOVsxsC14gLtl1IdZxJS9GhfzNoXtUK3l3rc7KAutu\nO2icn9YA1a86g99TNkKgmLPg8z7yduvBur3OervvoQKBgQDT4XOYV3VqLMvas3Eb\nD97PA+pRrzzho/jZJwyAw0jKrPUSWXjd0SBirAbQrO27WqgOOvix41gGdW8Hoz86\nYRWZ8xOGrbLt2oLhr0ev1Ou6Pqr22QCj4sVtH7bUVfbwVHdc8ZCB7EA8x4XYLLNd\nGuJ54noxZpSetaWH56yy8hFqPQKBgQC+Rb6YB5A2BEKAIzVjRDHD+qQSa8aSz7lJ\natqQ783mUaOExYY1e8PgMYkIdkd3EHxp0RYUJl7L4sHgkZss7Gtvm0KePQE68TYg\nAqqVzy1n3ov7peOpPEyYoWVBqgz92YFUbTVDM/jLIwOYY0/BmQMOA/74lsN9HKxB\ngw0jNy5K/QKBgQC1HL4GtpuzCl+mrkQ8cbBvHFWrRTOxXMxWMr7JQiRyuq0x5jEe\nyqf4MDwTG/6Ka8/Dej0jMcYIn1EtIinl6R7h3ZoPQWL1VhcSexW4AzUMmozhPFUD\nwdAomzdZAbJ3dHwjgomXxS6TxalvQ6Z+K4Dz1tfEan8XuwWnyi0hOTIRsQKBgQCP\nJjXAd2A943KMqPCPoEy4nyc1XLRm27UQ0T1i8ae88grN5zWTo2u4jkwEe8hEgbi4\ne7/apQuI5S7r32AZqj0iGHNETa1RRQxthNQGJXqJvNsgFqxzNJSD+FkPz/o6OZud\ngxQhXUZ+vfcEfSMSCiZMMyFusS6eQCYwm4IUzn0bmQKBgEDTyYVGCnPSPLD6mhYu\nUf9vokDH9jCvGX75ghAwSMdBHdwZWZy60+UeITi5lgUw36P+gM0/Fg1r4RNnMrPj\n0zxfeiEOaQxRrJodWiG6pNWVSigBiVqehGigQYDOSrHc+iTlXdbosZFx33ct+cGa\ncngolWYFf0Nt8Oca3VrDWgck\n-----END PRIVATE KEY-----\n",
  "client_email": "593390591267-compute@developer.gserviceaccount.com",
  "client_id": "118258965823498754578",
  "auth_uri": "https://accounts.google.com/o/oauth2/auth",
  "token_uri": "https://oauth2.googleapis.com/token",
  "auth_provider_x509_cert_url": "https://www.googleapis.com/oauth2/v1/certs",
  "client_x509_cert_url": "https://www.googleapis.com/robot/v1/metadata/x509/593390591267-compute%40developer.gserviceaccount.com"
}
