{
  "type": "service_account",
  "project_id": "ferrous-cipher-238107",
  "private_key_id": "c8579dd492e295d171a1bb30bb14e90857603495",
  "private_key": "-----BEGIN PRIVATE KEY-----\nMIIEvQIBADANBgkqhkiG9w0BAQEFAASCBKcwggSjAgEAAoIBAQDkq692XaVUHc7w\nMwMZhu1Lt4E5/UFCNhJOz6NmBiNDWrcg5v8B3MxWIBtHj6nJUkH+LYLNfVl2ZuPO\nIDxL/XeLMxPVf4OcfQzyYIwnb6SdCClxZ+g7XxcOMxPpSmZkY8+aU6IXIjxUW3rn\nMdt0uhG67BCtsWUat51TxRBHLe5nphHpPL8cOC77OdRlPszxz0dqCserfmFu9Sg9\nO22rzSuznTC6Z5bfy2a4Jv9MOisKU1Lj1ul5WxSgfNrHFS3MYpFrD31H+Xvd8x+t\nIA72ncQoUENcl2Yy+0vmrG9ISUKeC/anII+L5pr6V2BHA0a3KT127rbb24vxsMWO\nI/10ZLynAgMBAAECggEALwC3RU5EcIDcC3WA2ptoZVrn3iKXamOw6bA2dv8l+m9I\nGyRAIILhIYbh9JisHqyg0f1K2LA+Vl8ZzkHEAx6rlto95nGafO0bXyrHREfnfzux\nQRVJoAKQu6N2IUrgtxvpDWDJfZXU7sYLAkC2Sk0A3fouB3XiQVaiqRhlmyvuyDDw\nHjbfE8/khfaf20sNpKcr/tEvfru3PGL2+0KK8wt6ijlmXvnoXnjibS7wTiylOB6o\nQ3pElu/Ti6IlhRRV5DY2d3G7p8HNn7SRKa2XKxcihHrNxn4iy7ldrD4B7ZGMCVjW\nKTD7ocPoxy69YPNebgAT9rTo7dhjZG2B711Ghh73AQKBgQD1BY9X7pAcokHJtAVc\ng9Yg5Gewg4h38Zf30omcs2mZPRcz5IBnCB6rHDdrQoXYjbRI4zPzScp/LTF2WqtB\nlta6ZxSqzaEsrdICATVditcg8xwF+5CkM/bRJyku+oEuKZ+OU0eorowh+3WuPgxZ\n31MyQXahHAnzLZTGC3SpCoLpgQKBgQDu6pNwNg6IoTzNBszVcLabHEbSNj9X4Xje\n4uIyKdkBIK827EjDx5yZvjsSLtHYu+f8wRjIqverj+HN6MIerD3uNOklkniW6un4\nLCPXIW1nOF8gX6QL8UsvXhYb9Shq568QKx6Ss6E7f2T2gvRj86rA+/JwMWX5Si7X\ny4W7iiQqJwKBgHI4aE0ueeHPRenYUNOC5dQphajEeF6pshUmAV6aSHTWBLX9JFpj\nb6CGo9MNjMWZsVx1Bee5E3vbvn4U4FbQEUOOABVrjGH+mbKzi4QS0BydGAg18ISL\ncNipb8plnsi9QJMhgXtB+zNwPLjAVhOjRu5blAigwIarTfpQps6ShtqBAoGAHQ70\n3coFXILX5Uv1b+RkoVsAFiM48xReYiWQQ2+pkCSMiw6UDxPhLSXhA2Ykacr4/Vnz\nDL0WoIxAd43exmJGqglPbh1xg1GRIXkk5s6PAuXtU/+t8THo5hr4b3AS+WWyejH0\nZv1oF9d3zS/CT8HcO9qo8xJfB8IJDoAXhObZXTMCgYEA7VrlQZSY5HmspiLv0GqJ\nZvw5vka5uPlLxPfJ2ns95od5kFA9crfj6lzUYw0JXNNZEB+kyHb/0qqMmGMz/82s\nTOC/BNXgFUXWsDj5d9QXc5+69uGo8SVhUN8+p6BQlP4wQKCvdYAQNnP06Gp7D5ly\n7LxvF1lqrThqNKR0aLtO0AM=\n-----END PRIVATE KEY-----\n",
  "client_email": "342730812579-compute@developer.gserviceaccount.com",
  "client_id": "101028805904671459369",
  "auth_uri": "https://accounts.google.com/o/oauth2/auth",
  "token_uri": "https://oauth2.googleapis.com/token",
  "auth_provider_x509_cert_url": "https://www.googleapis.com/oauth2/v1/certs",
  "client_x509_cert_url": "https://www.googleapis.com/robot/v1/metadata/x509/342730812579-compute%40developer.gserviceaccount.com"
}
