{
    "realm": "n-able-training",
    "enabled": true,
    "loginTheme": "enable",
    "groups": [
      {
        "name": "admin",
        "path": "/admin",
        "realmRoles": [
          "admin",
    "user"
        ]
      },
      {
        "name": "participant",
        "path": "/participant",
        "realmRoles": [
          "participant",
    "user"
        ]
      },
      {
        "name": "trainer",
        "path": "/trainer",
        "realmRoles": [
          "trainer",
    "user"
        ]
      },
      {
          "name": "user",
          "path": "/user",
          "realmRoles": [
            "user"
          ]
        }
    ],
    "roles": {
        "realm": [
            {
                "name": "user",
                "description": "User privileges"
            },
            {
                "name": "trainer",
                "description": "Trainer privileges"
            },
            {
                "name": "participant",
                "description": "Participant privileges"
            },
            {
                "name": "admin",
                "description": "Administrator privileges"
            }
        ]
    },
    "defaultRoles": [
        "user"
      ],
    "clients": [
      {
        "clientId": "courses",
        "enabled": true,
        "redirectUris": [
            "https://ckad-professional.n-able.training/*",
            "https://kubernetes-introduction.n-able.training/*",
            "https://ckad-exam-training.n-able.training/*",
            "https://cka-professional-advanced.n-able.training/*",
            "https://kuard-proxy-training.n-able.training/*",
            "https://k8s.n-able.training/*",
            "https://cka-exam-training.n-able.training/*",
            "https://ckad-professional-advanced.n-able.training/*",
            "https://cka-professional.n-able.training/*"
        ],
        "webOrigins": [
            "https://k8s.n-able.training",
            "https://ckad-exam-training.n-able.training",
            "https://kubernetes-introduction.n-able.training",
            "https://cka-professional.n-able.training",
            "https://ckad-professional-advanced.n-able.training",
            "https://cka-professional-advanced.n-able.training",
            "https://ckad-professional.n-able.training",
            "https://cka-exam-training.n-able.training",
            "https://kuard-proxy-training.n-able.training"
        ],
        "clientAuthenticatorType": "client-secret",
        "secret": "8518aafd-4f04-48d9-b8ef-0b1d95e20e13",
        "publicClient": false,
        "protocol": "openid-connect",
        "protocolMappers": [
          {
            "name": "groups",
            "protocol": "openid-connect",
            "protocolMapper": "oidc-group-membership-mapper",
            "consentRequired": false,
            "config": {
              "full.path": "true",
              "id.token.claim": "true",
              "access.token.claim": "true",
              "claim.name": "groups",
              "userinfo.token.claim": "true"
            }
          },
          {
            "name": "audience",
            "protocol": "openid-connect",
            "protocolMapper": "oidc-audience-mapper",
            "consentRequired": false,
            "config": {
              "included.client.audience": "courses",
              "id.token.claim": "false",
              "access.token.claim": "true"
            }
          },
          {
            "name": "email",
            "protocol": "openid-connect",
            "protocolMapper": "oidc-usermodel-property-mapper",
            "consentRequired": false,
            "config": {
              "userinfo.token.claim": "true",
              "user.attribute": "email",
              "id.token.claim": "true",
              "access.token.claim": "true",
              "claim.name": "email",
              "jsonType.label": "String"
            }
          },
          {
            "name": "username",
            "protocol": "openid-connect",
            "protocolMapper": "oidc-usermodel-property-mapper",
            "consentRequired": false,
            "config": {
              "userinfo.token.claim": "true",
              "user.attribute": "username",
              "id.token.claim": "true",
              "access.token.claim": "true",
              "claim.name": "preferred_username",
              "jsonType.label": "String"
            }
          },
          {
            "name": "full name",
            "protocol": "openid-connect",
            "protocolMapper": "oidc-full-name-mapper",
            "consentRequired": false,
            "config": {
              "id.token.claim": "true",
              "access.token.claim": "true",
              "userinfo.token.claim": "true"
            }
          }
        ]
      },
      {
        "clientId": "app",
        "surrogateAuthRequired": false,
        "enabled": true,
        "alwaysDisplayInConsole": false,
        "clientAuthenticatorType": "client-secret",
        "secret": "6878f3cc-b199-4895-b419-4f2be7d0da05",
        "redirectUris": [
          "https://sso-backend.n-able.consulting/*",
          "https://sso-frontend.n-able.consulting/*"
        ],
        "webOrigins": [
          "https://sso-frontend.n-able.consulting",
          "https://sso-backend.n-able.consulting"
        ],
        "notBefore": 0,
        "bearerOnly": false,
        "consentRequired": false,
        "standardFlowEnabled": true,
        "implicitFlowEnabled": false,
        "directAccessGrantsEnabled": true,
        "serviceAccountsEnabled": false,
        "publicClient": true,
        "frontchannelLogout": false,
        "protocol": "openid-connect",
        "attributes": {
          "saml.assertion.signature": "false",
          "saml.force.post.binding": "false",
          "saml.multivalued.roles": "false",
          "saml.encrypt": "false",
          "saml.server.signature": "false",
          "saml.server.signature.keyinfo.ext": "false",
          "exclude.session$state_dir.from.auth.response": "false",
          "saml_force_name_id_format": "false",
          "saml.client.signature": "false",
          "tls.client.certificate.bound.access.tokens": "false",
          "saml.authnstatement": "false",
          "display.on.consent.screen": "false",
          "saml.onetimeuse.condition": "false"
        },
        "authenticationFlowBindingOverrides": {},
        "fullScopeAllowed": true,
        "nodeReRegistrationTimeout": -1,
        "defaultClientScopes": [
          "web-origins",
          "role_list",
          "profile",
          "roles",
          "email"
        ],
        "optionalClientScopes": [
          "address",
          "phone",
          "offline_access",
          "microprofile-jwt"
        ]
      }
    ],
    "users": [
      {
          "username": "ruben",
          "email": "ruben@n-able.consulting",
          "firstName": "ruben",
          "lastName": "visser",
          "enabled": true,
          "emailVerified": true,
          "credentials": [
              {
                  "type": "password",
                  "value": "fCHBwnOWkFnnxxbwxDb4lViKoGLKdGtSYBhKrxEep4ds2mnm1kvHkr7TFswWkWzPqdW5PZpmD9FgkIIQTpOCwU5msbunuMtKnFU"
              }
          ],
          "groups" : [ "/admin" ]
        },  
        {
            "username": "participant-one",
            "email": "participant.one@n-able.training",
            "firstName": "participant",
            "lastName": "one",
            "enabled": true,
            "emailVerified": true,
            "credentials": [
                {
                    "type": "password",
                    "value": "w6hbYvqC9Wz95MumDV93aKj7wBpQVQ6tY8P5qbeuegRSh6Y6x73SXyX4ABQzymag5M6ggAu5jyaTsgnrtmhVd69U4Ca743ePjB5N"
                }
            ],
            "groups" : [ "/participant" ]
        },  
        {
            "username": "participant-two",
            "email": "participant.two@n-able.training",
            "firstName": "participant",
            "lastName": "two",
            "enabled": true,
            "emailVerified": true,
            "credentials": [
                {
                    "type": "password",
                    "value": "Oe6zE9G0QKFKapPcoWT43KP1kWUES17sdkscEDuDgZsxkOzSPMTFUcjaCX0hnHBYW4db4h4X4IAEJViwmCiHa2FYUVGaCFea1YJ"
                }
            ],
            "groups" : [ "/participant" ]
        },  
        {
            "username": "participant-three",
            "email": "participant.three@n-able.training",
            "firstName": "participant",
            "lastName": "three",
            "enabled": true,
            "emailVerified": true,
            "credentials": [
                {
                    "type": "password",
                    "value": "JAMSg03nlu49TmYBBuMWAU6HCwKIpVv1psXl1lntycDfbTOBGGD88nruMeKkSHlEAXB7K4e9l7bpMnhaGQc07lz3I9HtBe3zxNT"
                }
            ],
            "groups" : [ "/participant" ]
        },  
        {
            "username": "participant-four",
            "email": "participant.four@n-able.training",
            "firstName": "participant",
            "lastName": "four",
            "enabled": true,
            "emailVerified": true,
            "credentials": [
                {
                    "type": "password",
                    "value": "blaJec1Io1JECejmoenP6VQSdRAyuQ2M3TA548jacWopLD5csKa5ergQXRt3vQ00bk9MGTRQXkCnIPiFmJZ8cNxSK8ZJvlSPbaZ"
                }
            ],
            "groups" : [ "/participant" ]
        },  
        {
            "username": "participant-five",
            "email": "participant.five@n-able.training",
            "firstName": "participant",
            "lastName": "five",
            "enabled": true,
            "emailVerified": true,
            "credentials": [
                {
                    "type": "password",
                    "value": "5OzV504AFiQlayGr3xmklI9LFCeEhMGFCrmwFXnQ1G8zu8ElFkAUtK38Qyx7p0AgXYzLaS028cOn9qptUm3OdwBL0cIhFGmhU6S"
                }
            ],
            "groups" : [ "/participant" ]
        },  
        {
            "username": "participant-six",
            "email": "participant.six@n-able.training",
            "firstName": "participant",
            "lastName": "six",
            "enabled": true,
            "emailVerified": true,
            "credentials": [
                {
                    "type": "password",
                    "value": "W5vlGgwqNvJUP3tkO4LODwTqvwFwSUXPLr3diMw2ooXIuUKixXT8n6nQLz8xI739Uh1XqhifbrVpKmhDMTrlWXBc8ZioRhNUqy9"
                }
            ],
            "groups" : [ "/participant" ]
        },  
        {
            "username": "participant-seven",
            "email": "participant.seven@n-able.training",
            "firstName": "participant",
            "lastName": "seven",
            "enabled": true,
            "emailVerified": true,
            "credentials": [
                {
                    "type": "password",
                    "value": "v1dzTSNrTW9H8Vg8caiUTqngJzdbpYgsQeDseqCXjbEzop14Si9i91UsA6tZUiTl6A9WmLvbsvdAUhk2227tNwgPRTpxw7zPg98"
                }
            ],
            "groups" : [ "/participant" ]
        },  
        {
            "username": "participant-eight",
            "email": "participant.eight@n-able.training",
            "firstName": "participant",
            "lastName": "eight",
            "enabled": true,
            "emailVerified": true,
            "credentials": [
                {
                    "type": "password",
                    "value": "q8pZj2Q7pLAc2StfU2gODCF2Z8cIqJgrcUojSapcEeAfuCRbQFCpegHfEFTUjRLCyR9b2aUNBxUfgqKKg1Jqg3Q1iiinYAMlaHb"
                }
            ],
            "groups" : [ "/participant" ]
        },  
        {
            "username": "participant-nine",
            "email": "participant.nine@n-able.training",
            "firstName": "participant",
            "lastName": "nine",
            "enabled": true,
            "emailVerified": true,
            "credentials": [
                {
                    "type": "password",
                    "value": "mala1GP9SKDNGZd91BzTt6zWGBs5yD1Kxfz4wi5m2XGfvEqbkZJNoTQspPJiHZRPQ5rjLqpvtBIxlNSBsPGSbVfj4psingKPqCS"
                }
            ],
            "groups" : [ "/participant" ]
        },  
        {
            "username": "participant-ten",
            "email": "participant.ten@n-able.training",
            "firstName": "participant",
            "lastName": "ten",
            "enabled": true,
            "emailVerified": true,
            "credentials": [
                {
                    "type": "password",
                    "value": "Tz5j1i9JOBgQS2XmgwzEoA5AVP4g724vzjJJgo0yiMDc6l9I4Yx6reLse5KrwdW9cEe1NlJbdmA0JAWPDFM9ziw9zFdDI6s4s9E"
                }
            ],
            "groups" : [ "/participant" ]
        },  
        {
            "username": "participant-eleven",
            "email": "participant.eleven@n-able.training",
            "firstName": "participant",
            "lastName": "eleven",
            "enabled": true,
            "emailVerified": true,
            "credentials": [
                {
                    "type": "password",
                    "value": "Pl23K85PvuZI3GdhYvZokQIQfk6Y2pSmkM4CjtJx3p7ePsjsCfEzxcYakJNipkNcmNHHoRUnD8xxaEsFJ3XfXXzzAXICUiMlOPL"
                }
            ],
            "groups" : [ "/participant" ]
        },  
        {
            "username": "participant-twelf",
            "email": "participant.twelf@n-able.training",
            "firstName": "participant",
            "lastName": "twelf",
            "enabled": true,
            "emailVerified": true,
            "credentials": [
                {
                    "type": "password",
                    "value": "A9v8lVVAP36C4PPI4MCi18Wj5PF3lKqIIHD6Qi8PEoMBwusvT2imr6X11MAvGa3pFs3J95gSyaTFK8Thhi6r0dWy5KctCRD1UV1"
                }
            ],
            "groups" : [ "/participant" ]
        },  
        {
            "username": "participant-thirteen",
            "email": "participant.thirteen@n-able.training",
            "firstName": "participant",
            "lastName": "thirteen",
            "enabled": true,
            "emailVerified": true,
            "credentials": [
                {
                    "type": "password",
                    "value": "KzaorfmiuDSJLS2K4hO3LtpD28WOZAvQovAUFEfXThm2ur0syHe0ob7Z0AsB4HzCNqrhIa7s0hB9ViHF8PEFfH0UrBiczDEbnPX"
                }
            ],
            "groups" : [ "/participant" ]
        },  
        {
            "username": "participant-fourteen",
            "email": "participant.fourteen@n-able.training",
            "firstName": "participant",
            "lastName": "fourteen",
            "enabled": true,
            "emailVerified": true,
            "credentials": [
                {
                    "type": "password",
                    "value": "lXg04K2U60nzUyzyInNtEg9aj0nlWKIv4fKQSxu8NXS0pmEsVDJjYa8cG7i2KJsXeb55iMwzOTINL1sLgo97zl2GhcZPAKuZX2r"
                }
            ],
            "groups" : [ "/participant" ]
        },  
        {
            "username": "participant-fifteen",
            "email": "participant.fifteen@n-able.training",
            "firstName": "participant",
            "lastName": "fifteen",
            "enabled": true,
            "emailVerified": true,
            "credentials": [
                {
                    "type": "password",
                    "value": "pY1KTnxhS0ivB9Sg0jQnUxNqBA3sVrwUJd2P1iqwdj6bIBfJA3Hk1uT9QkylkQ6xBgKCpiHHsrWJvqmSZArBE3Me6nxWoWbI3OR"
                }
            ],
            "groups" : [ "/participant" ]
        },  
        {
            "username": "participant-sixteen",
            "email": "participant.sixteen@n-able.training",
            "firstName": "participant",
            "lastName": "sixteen",
            "enabled": true,
            "emailVerified": true,
            "credentials": [
                {
                    "type": "password",
                    "value": "m67OWA03woJs7VS9x7XHjyTLO8r0LQeph5vofPUveuhmV7zSYCSNgwC8LYVObNC84J2upMtLzeOgKDT7WONGxTzjtWiPn3PGczW"
                }
            ],
            "groups" : [ "/participant" ]
        },  
        {
            "username": "participant-seventeen",
            "email": "participant.seventeen@n-able.training",
            "firstName": "participant",
            "lastName": "seventeen",
            "enabled": true,
            "emailVerified": true,
            "credentials": [
                {
                    "type": "password",
                    "value": "PonMomGZ9cBHVLoTGQ5XJ7bB1xhacN7sb9EI91AftizmzPKoVRhH7U4N7GCnrUQgQZf5FyRRW3ZwhOxFXv680dB5gX7tpk4M6Ee"
                }
            ],
            "groups" : [ "/participant" ]
        },  
        {
            "username": "participant-eighteen",
            "email": "participant.eighteen@n-able.training",
            "firstName": "participant",
            "lastName": "eighteen",
            "enabled": true,
            "emailVerified": true,
            "credentials": [
                {
                    "type": "password",
                    "value": "2HZNeQeqEwOqCvHxFFecnsD5Y9vYGiShLv3AAIyN7l65R3ZK7NP0Y3TapyI3OmicTLj9VINI4S0RJWrIg15u0AnV8mnP8ih3yVZ"
                }
            ],
            "groups" : [ "/participant" ]
        },  
        {
            "username": "participant-nineteen",
            "email": "participant.nineteen@n-able.training",
            "firstName": "participant",
            "lastName": "nineteen",
            "enabled": true,
            "emailVerified": true,
            "credentials": [
                {
                    "type": "password",
                    "value": "qc3jnadJSnjtO4fRtS6q5O2b6UABQm354wFoeeCvskdF8oCzOYNJv9sM3KI4qEXNDEmFHVEgH2Iv5k60YkmBuEbfRKSdUWEey7D"
                }
            ],
            "groups" : [ "/participant" ]
        },  
        {
            "username": "participant-twenty",
            "email": "participant.twenty@n-able.training",
            "firstName": "participant",
            "lastName": "twenty",
            "enabled": true,
            "emailVerified": true,
            "credentials": [
                {
                    "type": "password",
                    "value": "TBsPP0G1ngo5BRB1S7dRzCr6uJPJACct5vZEw4PJy7DtKIxqR6OIqjjOmxjq8dgQ9erXVs7gLmeSgddaDdEbAyPbGnI8DT9wEaR"
                }
            ],
            "groups" : [ "/participant" ]
        },  
        {
            "username": "participant-twentyone",
            "email": "participant.twentyone@n-able.training",
            "firstName": "participant",
            "lastName": "twentyone",
            "enabled": true,
            "emailVerified": true,
            "credentials": [
                {
                    "type": "password",
                    "value": "w6hbYvqC9Wz95MumDV93aKj7wBpQVQ6tY8P5qbeuegRSh6Y6x73SXyX4ABQzymag5M6ggAu5jyaTsgnrtmhVd69U4Ca743ePjB5N"
                }
            ],
            "groups" : [ "/participant" ]
        },  
        {
            "username": "participant-twentytwo",
            "email": "participant.twentytwo@n-able.training",
            "firstName": "participant",
            "lastName": "twentytwo",
            "enabled": true,
            "emailVerified": true,
            "credentials": [
                {
                    "type": "password",
                    "value": "w6hbYvqC9Wz95MumDV93aKj7wBpQVQ6tY8P5qbeuegRSh6Y6x73SXyX4ABQzymag5M6ggAu5jyaTsgnrtmhVd69U4Ca743ePjB5N"
                }
            ],
            "groups" : [ "/participant" ]
        },  
        {
            "username": "participant-twentythree",
            "email": "participant.twentythree@n-able.training",
            "firstName": "participant",
            "lastName": "twentythree",
            "enabled": true,
            "emailVerified": true,
            "credentials": [
                {
                    "type": "password",
                    "value": "w6hbYvqC9Wz95MumDV93aKj7wBpQVQ6tY8P5qbeuegRSh6Y6x73SXyX4ABQzymag5M6ggAu5jyaTsgnrtmhVd69U4Ca743ePjB5N"
                }
            ],
            "groups" : [ "/participant" ]
        },  
        {
            "username": "participant-twentyfour",
            "email": "participant.twentyfour@n-able.training",
            "firstName": "participant",
            "lastName": "twentyfour",
            "enabled": true,
            "emailVerified": true,
            "credentials": [
                {
                    "type": "password",
                    "value": "w6hbYvqC9Wz95MumDV93aKj7wBpQVQ6tY8P5qbeuegRSh6Y6x73SXyX4ABQzymag5M6ggAu5jyaTsgnrtmhVd69U4Ca743ePjB5N"
                }
            ],
            "groups" : [ "/participant" ]
        }
      ]
  }