{
  "realm": "n-able-production",
  "enabled": true,
  "loginTheme": "enable",
  "groups": [
    {
      "name": "admin",
      "path": "/admin",
      "realmRoles": [
        "admin",
  "user"
      ]
    },
    {
      "name": "ArgoCDAdmins",
      "path": "/ArgoCDAdmins",
      "attributes": {},
      "realmRoles": [],
      "clientRoles": {},
      "subGroups": []
    },
    {
      "name": "ArgoWorkflowAdmins",
      "path": "/ArgoWorkflowAdmins",
      "attributes": {},
      "realmRoles": [],
      "clientRoles": {},
      "subGroups": []
    },
    {
      "name": "participant",
      "path": "/participant",
      "realmRoles": [
        "participant",
  "user"
      ]
    },
    {
      "name": "trainer",
      "path": "/trainer",
      "realmRoles": [
        "trainer",
  "user"
      ]
    },
    {
        "name": "user",
        "path": "/user",
        "realmRoles": [
          "user"
        ]
      }
  ],
  "roles": {
      "realm": [
          {
              "name": "user",
              "description": "User privileges"
          },
          {
              "name": "trainer",
              "description": "Trainer privileges"
          },
          {
              "name": "participant",
              "description": "Participant privileges"
          },
          {
              "name": "admin",
              "description": "Administrator privileges"
          }
      ]
  },
  "defaultRoles": [
      "user"
    ],
  "clients": [
    {
      "clientId": "kubernetes",
      "enabled": true,
      "redirectUris": [
        "https://kubernetes-dashboard.#domain#/*",
        "https://kibana.#domain#/*",
        "https://prometheus.#domain#/*",
        "https://client-ip.#domain#/*",
        "http://127.0.0.1:5555/callback",
        "https://longhorn.#domain#/*",
        "https://argo.#domain#/*",
        "https://events.argo.#domain#/*",
        "https://rollouts.argo.#domain#/*",
        "https://workflow.argo.#domain#/*",
        "https://ceph.#domain#/*"
      ],
      "webOrigins": [
        "http://127.0.0.1:5555",
        "https://kubernetes-dashboard.#domain#",
        "https://prometheus.#domain#",
        "https://client-ip.#domain#",
        "https://kibana.#domain#",
        "https://longhorn.#domain#",
        "https://argo.#domain#",
        "https://events.argo.#domain#",
        "https://rollouts.argo.#domain#",
        "https://workflow.argo.#domain#",
        "https://ceph.#domain#"
      ],
      "clientAuthenticatorType": "client-secret",
      "secret": "eb91edc2-e8af-4f89-be92-4c411bc5f113",
      "publicClient": false,
      "protocol": "openid-connect",
      "protocolMappers": [
        {
          "name": "groups",
          "protocol": "openid-connect",
          "protocolMapper": "oidc-group-membership-mapper",
          "consentRequired": false,
          "config": {
            "full.path": "true",
            "id.token.claim": "true",
            "access.token.claim": "true",
            "claim.name": "groups",
            "userinfo.token.claim": "true"
          }
        },
        {
          "name": "audience",
          "protocol": "openid-connect",
          "protocolMapper": "oidc-audience-mapper",
          "consentRequired": false,
          "config": {
            "included.client.audience": "kubernetes",
            "id.token.claim": "false",
            "access.token.claim": "true"
          }
        },
        {
          "name": "email",
          "protocol": "openid-connect",
          "protocolMapper": "oidc-usermodel-property-mapper",
          "consentRequired": false,
          "config": {
            "userinfo.token.claim": "true",
            "user.attribute": "email",
            "id.token.claim": "true",
            "access.token.claim": "true",
            "claim.name": "email",
            "jsonType.label": "String"
          }
        },
        {
          "name": "username",
          "protocol": "openid-connect",
          "protocolMapper": "oidc-usermodel-property-mapper",
          "consentRequired": false,
          "config": {
            "userinfo.token.claim": "true",
            "user.attribute": "username",
            "id.token.claim": "true",
            "access.token.claim": "true",
            "claim.name": "preferred_username",
            "jsonType.label": "String"
          }
        },
        {
          "name": "full name",
          "protocol": "openid-connect",
          "protocolMapper": "oidc-full-name-mapper",
          "consentRequired": false,
          "config": {
            "id.token.claim": "true",
            "access.token.claim": "true",
            "userinfo.token.claim": "true"
          }
        }
      ]
    }
  ],
  "users": [
      {
          "username": "ruben",
          "email": "ruben@n-able.consulting",
          "firstName": "ruben",
          "lastName": "visser",
          "enabled": true,
          "emailVerified": true,
          "credentials": [
              {
                  "type": "password",
                  "value": "fCHBwnOWkFnnxxbwxDb4lViKoGLKdGtSYBhKrxEep4ds2mnm1kvHkr7TFswWkWzPqdW5PZpmD9FgkIIQTpOCwU5msbunuMtKnFU"
              }
          ],
          "groups" : [ "/admin", "/ArgoCDAdmins", "/ArgoWorkflowAdmins" ]
        }      
    ]
}